2021-08-26 11:30:01.191193, NIFTY21AUG16700PE, Buy, Williams, 53.65
2021-08-26 11:30:24.195560, NIFTY21AUG16600CE, Buy, Williams, 71.9
2021-08-26 11:30:47.041171, NIFTY21AUG16600CE, Sell, Williams, 68.25
2021-08-26 11:31:09.839966, NIFTY21AUG16600CE, Buy, Williams, 70.85
2021-08-26 11:31:20.984030, NIFTY21AUG16700PE, Sell, Williams, 50.55
2021-08-26 11:31:32.389040, NIFTY21AUG16700PE, Buy, Williams, 51.65
2021-08-26 11:31:44.315697, NIFTY21AUG16600CE, Sell, Williams, 70.3
2021-08-26 11:32:07.405495, NIFTY21AUG16700PE, Sell, Williams, 50.55
2021-08-26 11:32:07.711020, NIFTY21AUG16600CE, Buy, Williams, 71.2
2021-08-26 11:33:06.053346, NIFTY21AUG16700PE, Buy, Williams, 50.9
2021-08-26 11:33:17.917197, NIFTY21AUG16700PE, Sell, Williams, 49.95
2021-08-26 11:33:40.887890, NIFTY21AUG16700PE, Buy, Williams, 50.9
2021-08-26 11:33:52.231863, NIFTY21AUG16700PE, Sell, Williams, 49.95
2021-08-26 11:46:04.722069, NIFTY21AUG16600CE, Sell, Williams, 67.35
2021-08-26 11:47:01.653608, NIFTY21AUG16700PE, Buy, Williams, 53.3
2021-08-26 11:48:10.623777, NIFTY21AUG16700PE, Sell, Williams, 51.8
2021-08-26 11:54:38.016094, NIFTY21AUG16700PE, Buy, Williams, 53.4
2021-08-26 11:54:49.299005, NIFTY21AUG16700PE, Sell, Williams, 51.6
2021-08-26 11:55:00.613579, NIFTY21AUG16700PE, Buy, Williams, 54.9
