{
"myArray" : [
    {
      "average_price": 0,
      "cancelled_quantity": 0,
      "disclosed_quantity": 0,
      "exchange": "NSE",
      "exchange_order_id": null,
      "exchange_timestamp": null,
      "exchange_update_timestamp": null,
      "filled_quantity": 0,
      "instrument_token": 1,
      "market_protection": 0,
      "order_id": "171222000539943",
      "order_timestamp": "2017-12-22 10:36:09",
      "order_type": "SL",
      "parent_order_id": null,
      "pending_quantity": 1,
      "placed_by": "ZQXXXX",
      "price": 130,
      "product": "MIS",
      "quantity": 1,
      "status": "PUT ORDER REQ RECEIVED",
      "status_message": null,
      "tag": null,
      "tradingsymbol": "ASHOKLEY",
      "transaction_type": "BUY",
      "trigger_price": 128,
      "validity": "DAY",
      "variety": "regular"
    },
    {
      "average_price": 0,
      "cancelled_quantity": 0,
      "disclosed_quantity": 0,
      "exchange": "NSE",
      "exchange_order_id": null,
      "exchange_timestamp": null,
      "filled_quantity": 0,
      "instrument_token": 54273,
      "market_protection": 0,
      "order_id": "171222000539943",
      "order_timestamp": "2017-12-22 10:36:09",
      "order_type": "SL",
      "parent_order_id": null,
      "pending_quantity": 1,
      "placed_by": "ZQXXXX",
      "price": 130,
      "product": "MIS",
      "quantity": 1,
      "status": "VALIDATION PENDING",
      "status_message": null,
      "tag": null,
      "tradingsymbol": "ASHOKLEY",
      "transaction_type": "BUY",
      "trigger_price": 128,
      "validity": "DAY",
      "variety": "regular"
    },
    {
      "average_price": 0,
      "cancelled_quantity": 0,
      "disclosed_quantity": 0,
      "exchange": "NSE",
      "exchange_order_id": null,
      "exchange_timestamp": null,
      "filled_quantity": 0,
      "instrument_token": 54273,
      "market_protection": 0,
      "order_id": "171222000539943",
      "order_timestamp": "2017-12-22 10:36:09",
      "order_type": "SL",
      "parent_order_id": null,
      "pending_quantity": 0,
      "placed_by": "ZQXXXX",
      "price": 130,
      "product": "MIS",
      "quantity": 1,
      "status": "REJECTED",
      "status_message": "RMS:Rule: Check circuit limit including square off order exceeds  for entity account-DH0490 across exchange across segment across product ",
      "tag": null,
      "tradingsymbol": "ASHOKLEY",
      "transaction_type": "BUY",
      "trigger_price": 128,
      "validity": "DAY",
      "variety": "regular"
    },
    {
      "average_price": 0,
      "cancelled_quantity": 0,
      "disclosed_quantity": 0,
      "exchange": "NSE",
      "exchange_order_id": null,
      "exchange_timestamp": null,
      "exchange_update_timestamp": null,
      "filled_quantity": 0,
      "instrument_token": 1,
      "market_protection": 0,
      "order_id": "171222000539943",
      "order_timestamp": "2017-12-22 10:36:09",
      "order_type": "SL",
      "parent_order_id": null,
      "pending_quantity": 1,
      "placed_by": "ZQXXXX",
      "price": 130,
      "product": "MIS",
      "quantity": 1,
      "status": "PUT ORDER REQ RECEIVED",
      "status_message": null,
      "tag": null,
      "tradingsymbol": "ASHOKLEY",
      "transaction_type": "BUY",
      "trigger_price": 128,
      "validity": "DAY",
      "variety": "regular"
    },
    {
      "average_price": 0,
      "cancelled_quantity": 0,
      "disclosed_quantity": 0,
      "exchange": "NSE",
      "exchange_order_id": null,
      "exchange_timestamp": null,
      "filled_quantity": 0,
      "instrument_token": 54273,
      "market_protection": 0,
      "order_id": "171222000539943",
      "order_timestamp": "2017-12-22 10:36:09",
      "order_type": "SL",
      "parent_order_id": null,
      "pending_quantity": 1,
      "placed_by": "ZQXXXX",
      "price": 130,
      "product": "MIS",
      "quantity": 1,
      "status": "VALIDATION PENDING",
      "status_message": null,
      "tag": null,
      "tradingsymbol": "ASHOKLEY",
      "transaction_type": "BUY",
      "trigger_price": 128,
      "validity": "DAY",
      "variety": "regular"
    },
    {
      "average_price": 0,
      "cancelled_quantity": 0,
      "disclosed_quantity": 0,
      "exchange": "NSE",
      "exchange_order_id": null,
      "exchange_timestamp": null,
      "filled_quantity": 0,
      "instrument_token": 54273,
      "market_protection": 0,
      "order_id": "171222000539943",
      "order_timestamp": "2017-12-22 10:36:09",
      "order_type": "SL",
      "parent_order_id": null,
      "pending_quantity": 0,
      "placed_by": "ZQXXXX",
      "price": 130,
      "product": "MIS",
      "quantity": 1,
      "status": "REJECTED",
      "status_message": "RMS:Rule: Check circuit limit including square off order exceeds  for entity account-DH0490 across exchange across segment across product ",
      "tag": null,
      "tradingsymbol": "ASHOKLEY",
      "transaction_type": "BUY",
      "trigger_price": 128,
      "validity": "DAY",
      "variety": "regular"
    },
    {
      "average_price": 0,
      "cancelled_quantity": 0,
      "disclosed_quantity": 0,
      "exchange": "NSE",
      "exchange_order_id": null,
      "exchange_timestamp": null,
      "exchange_update_timestamp": null,
      "filled_quantity": 0,
      "instrument_token": 1,
      "market_protection": 0,
      "order_id": "171222000539943",
      "order_timestamp": "2017-12-22 10:36:09",
      "order_type": "SL",
      "parent_order_id": null,
      "pending_quantity": 1,
      "placed_by": "ZQXXXX",
      "price": 130,
      "product": "MIS",
      "quantity": 1,
      "status": "PUT ORDER REQ RECEIVED",
      "status_message": null,
      "tag": null,
      "tradingsymbol": "ASHOKLEY",
      "transaction_type": "BUY",
      "trigger_price": 128,
      "validity": "DAY",
      "variety": "regular"
    },
    {
      "average_price": 0,
      "cancelled_quantity": 0,
      "disclosed_quantity": 0,
      "exchange": "NSE",
      "exchange_order_id": null,
      "exchange_timestamp": null,
      "filled_quantity": 0,
      "instrument_token": 54273,
      "market_protection": 0,
      "order_id": "171222000539943",
      "order_timestamp": "2017-12-22 10:36:09",
      "order_type": "SL",
      "parent_order_id": null,
      "pending_quantity": 1,
      "placed_by": "ZQXXXX",
      "price": 130,
      "product": "MIS",
      "quantity": 1,
      "status": "VALIDATION PENDING",
      "status_message": null,
      "tag": null,
      "tradingsymbol": "ASHOKLEY",
      "transaction_type": "BUY",
      "trigger_price": 128,
      "validity": "DAY",
      "variety": "regular"
    },
    {
      "average_price": 0,
      "cancelled_quantity": 0,
      "disclosed_quantity": 0,
      "exchange": "NSE",
      "exchange_order_id": null,
      "exchange_timestamp": null,
      "filled_quantity": 0,
      "instrument_token": 54273,
      "market_protection": 0,
      "order_id": "171222000539943",
      "order_timestamp": "2017-12-22 10:36:09",
      "order_type": "SL",
      "parent_order_id": null,
      "pending_quantity": 0,
      "placed_by": "ZQXXXX",
      "price": 130,
      "product": "MIS",
      "quantity": 1,
      "status": "REJECTED",
      "status_message": "RMS:Rule: Check circuit limit including square off order exceeds  for entity account-DH0490 across exchange across segment across product ",
      "tag": null,
      "tradingsymbol": "ASHOKLEY",
      "transaction_type": "BUY",
      "trigger_price": 128,
      "validity": "DAY",
      "variety": "regular"
    },
    {
      "average_price": 0,
      "cancelled_quantity": 0,
      "disclosed_quantity": 0,
      "exchange": "NSE",
      "exchange_order_id": null,
      "exchange_timestamp": null,
      "exchange_update_timestamp": null,
      "filled_quantity": 0,
      "instrument_token": 1,
      "market_protection": 0,
      "order_id": "171222000539943",
      "order_timestamp": "2017-12-22 10:36:09",
      "order_type": "SL",
      "parent_order_id": null,
      "pending_quantity": 1,
      "placed_by": "ZQXXXX",
      "price": 130,
      "product": "MIS",
      "quantity": 1,
      "status": "PUT ORDER REQ RECEIVED",
      "status_message": null,
      "tag": null,
      "tradingsymbol": "ASHOKLEY",
      "transaction_type": "BUY",
      "trigger_price": 128,
      "validity": "DAY",
      "variety": "regular"
    },
    {
      "average_price": 0,
      "cancelled_quantity": 0,
      "disclosed_quantity": 0,
      "exchange": "NSE",
      "exchange_order_id": null,
      "exchange_timestamp": null,
      "filled_quantity": 0,
      "instrument_token": 54273,
      "market_protection": 0,
      "order_id": "171222000539943",
      "order_timestamp": "2017-12-22 10:36:09",
      "order_type": "SL",
      "parent_order_id": null,
      "pending_quantity": 1,
      "placed_by": "ZQXXXX",
      "price": 130,
      "product": "MIS",
      "quantity": 1,
      "status": "VALIDATION PENDING",
      "status_message": null,
      "tag": null,
      "tradingsymbol": "ASHOKLEY",
      "transaction_type": "BUY",
      "trigger_price": 128,
      "validity": "DAY",
      "variety": "regular"
    },
    {
      "average_price": 0,
      "cancelled_quantity": 0,
      "disclosed_quantity": 0,
      "exchange": "NSE",
      "exchange_order_id": null,
      "exchange_timestamp": null,
      "filled_quantity": 0,
      "instrument_token": 54273,
      "market_protection": 0,
      "order_id": "171222000539943",
      "order_timestamp": "2017-12-22 10:36:09",
      "order_type": "SL",
      "parent_order_id": null,
      "pending_quantity": 0,
      "placed_by": "ZQXXXX",
      "price": 130,
      "product": "MIS",
      "quantity": 1,
      "status": "REJECTED",
      "status_message": "RMS:Rule: Check circuit limit including square off order exceeds  for entity account-DH0490 across exchange across segment across product ",
      "tag": null,
      "tradingsymbol": "ASHOKLEY",
      "transaction_type": "BUY",
      "trigger_price": 128,
      "validity": "DAY",
      "variety": "regular"
    },
    {
      "average_price": 0,
      "cancelled_quantity": 0,
      "disclosed_quantity": 0,
      "exchange": "NSE",
      "exchange_order_id": null,
      "exchange_timestamp": null,
      "exchange_update_timestamp": null,
      "filled_quantity": 0,
      "instrument_token": 1,
      "market_protection": 0,
      "order_id": "171222000539943",
      "order_timestamp": "2017-12-22 10:36:09",
      "order_type": "SL",
      "parent_order_id": null,
      "pending_quantity": 1,
      "placed_by": "ZQXXXX",
      "price": 130,
      "product": "MIS",
      "quantity": 1,
      "status": "PUT ORDER REQ RECEIVED",
      "status_message": null,
      "tag": null,
      "tradingsymbol": "ASHOKLEY",
      "transaction_type": "BUY",
      "trigger_price": 128,
      "validity": "DAY",
      "variety": "regular"
    },
    {
      "average_price": 0,
      "cancelled_quantity": 0,
      "disclosed_quantity": 0,
      "exchange": "NSE",
      "exchange_order_id": null,
      "exchange_timestamp": null,
      "filled_quantity": 0,
      "instrument_token": 54273,
      "market_protection": 0,
      "order_id": "171222000539943",
      "order_timestamp": "2017-12-22 10:36:09",
      "order_type": "SL",
      "parent_order_id": null,
      "pending_quantity": 1,
      "placed_by": "ZQXXXX",
      "price": 130,
      "product": "MIS",
      "quantity": 1,
      "status": "VALIDATION PENDING",
      "status_message": null,
      "tag": null,
      "tradingsymbol": "ASHOKLEY",
      "transaction_type": "BUY",
      "trigger_price": 128,
      "validity": "DAY",
      "variety": "regular"
    },
    {
      "average_price": 0,
      "cancelled_quantity": 0,
      "disclosed_quantity": 0,
      "exchange": "NSE",
      "exchange_order_id": null,
      "exchange_timestamp": null,
      "filled_quantity": 0,
      "instrument_token": 54273,
      "market_protection": 0,
      "order_id": "171222000539943",
      "order_timestamp": "2017-12-22 10:36:09",
      "order_type": "SL",
      "parent_order_id": null,
      "pending_quantity": 0,
      "placed_by": "ZQXXXX",
      "price": 130,
      "product": "MIS",
      "quantity": 1,
      "status": "REJECTED",
      "status_message": "RMS:Rule: Check circuit limit including square off order exceeds  for entity account-DH0490 across exchange across segment across product ",
      "tag": null,
      "tradingsymbol": "ASHOKLEY",
      "transaction_type": "BUY",
      "trigger_price": 128,
      "validity": "DAY",
      "variety": "regular"
    }
  ]
}